MA388 Sabermetrics: Lesson 9 – MA388 Sabermetrics
…
player_stats<-stats |>
group_by(bat_id,home_away) |>
summarize(AB=sum(ab),H=sum(hit),AVG=H/AB) |>
filter(AB>=100) #filter out players with <100 ABs

player_home_v_away<-player_stats |>
select(bat_id,home_away,AVG) |>
pivot_wider(id_cols = bat_id,
names_from = home_away,
values_from=AVG,
)

roster2022 |> count(player_id) |> arrange(-n)

# A tibble: 1,495 × 2
   player_id     n
   <chr>     <int>
 1 chany001      4
 2 fordm002      4
 3 abrea001      3
 4 banda001      3
 5 canor001      3
 6 chavj001      3
 7 duggs001      3
 8 fairs001      3
 9 gonzc002      3
10 keucd001      3
# ℹ 1,485 more rows
…
